{
  "videos": [{
    "page": "assets",
    "link": "https://www.youtube.com/embed/KG65K3lPinI",
    "length": 90,
    "label": "Using Assets",
    "description": "## What is an asset?  \n### A: An asset is anything that you own and has value! \nFor example: Real estate, vehicles, collectibles, investments and of course cash!  For business owners your assets may include inventory, equipment and intellectual property. It is important to keep a detailed and current record of your assets and their value for your own financial well-being and so that you and your loved ones have a complete picture of everything that you own."
  },{
    "page": "products",
    "link": "https://www.youtube.com/embed/gryw1iQA3CY",
    "length": 139,
    "label": "Using Products/Services",
    "description": "## What information should be added to the Products section? \n### A: Input key information about any anything that you sell – whether a physical product or service. \nFor example: Add descriptive information about any product or service that you sell including price points and margins, and link the product records that you create to your vendor and customer records."
  },{
    "page": "liabilities",
    "link": "https://www.youtube.com/embed/2HCdLlkigqI",
    "length": 128,
    "label": "Using Liabilities",
    "description": "## What is a liability? \n### A: A liability is money that you owe. \nFor example: Mortgage, bank loan, personal loans, credit cards, car loans, other outstanding bills.  It is important to keep a detailed and current record of your liabilities for your own financial well being and so that you and your loved ones have no unwelcome surprises regarding creditors and monies owed."
  },{
    "page": "vendors",
    "link": "https://www.youtube.com/embed/rgJQocrmGhI",
    "length": 134,
    "label": "Using Vendors",
    "description": "## What information should be added to the Vendors section? \n### A: Input key information about any company or individual from whom you purchase goods or services. \nFor example: Add contact and relationship information about any company or individual that that sells you raw materials, inventory, repair services, legal services, accounting services, etc, and link the vendor records that you create to product records and other parts of your business such as purchasing insights."
  },{
    "page": "customers",
    "link": "https://www.youtube.com/embed/YuESQdj8fxY",
    "length": 162,
    "label": "Using Customers",
    "description": "## What information should be added to the Customers section? \n### A: Input key information about your most important customers. \nFor example: Add contact and relationship information about any company or individual that purchases product or services from you and that makes up a significant portion of your current or future sales.  Link the customer records that you create to other parts of your busines such as an account record where you may have your CRM account and login information, or to a person such as a sales manager."
  },{
    "page": "people",
    "link": "https://www.youtube.com/embed/or7pMIHAtVM",
    "length": 125,
    "label": "Using People",
    "description": "## What information should be added to the People section? \n### A: Input key information about important people in your life and business. This may include family members, friends, employees/colleagues, clergy, trusted advisors, service providers – anyone that plays a key role in your life. \n\n Did you know: You can link each person that you add to the People section to other pages and files in your Parachute, providing a 360 degree view of the role that individual plays in your life/business. "
  },{
    "page": "files",
    "link": "https://www.youtube.com/embed/5Fmv6_JSXP4",
    "length": 104,
    "label": "Uploading Files to Parachute360",
    "description": "## What type of files and how many files can I upload to Parachute360? \n### A: You can upload any file type including .mp4 videos, .pdf files, .jpg pictures, .doc, .xls, etc.  And you can upload an unlimited number of files with no size limitation! \nFor example: You can upload an unlimited number of pictures, videos and documents – and connect those files to other parts of your Parachute! Oh, and don’t forget to invite your family, friends, coworkers, etc. to view pertinent files!"
  },{
    "page": "insights",
    "link": "https://www.youtube.com/embed/i2kPgl7xKw8",
    "length": 169,
    "label": "Using Insights",
    "description": "## What is an Insight? \n### A: An insight is any detail of your business or personal life that someone may need to know that is not detailed anywhere else in your account. \nFor example: An insight may include minute details like alarm codes for home or office, location of automobile or home/office keys, or anything else at all that needs to live outside of your head so that someone else can take action (or so that you can stay organized!)."
  },{
    "page": "accounts",
    "link": "https://www.youtube.com/embed/TRUJ3zlCi7E",
    "length": 142,
    "label": "Using Accounts",
    "description": "## What information should be added to the Accounts section? \n### A: Input information for any account for which you have an account number and/or an online login including your user name and password so that the information needed to access the account is securely recorded. \nFor example: Accounts may include your bank accounts, utilities, social media, credit cards, etc. Be sure to link the account records that you create to the other parts of your Parachute. Also, be sure to put a detailed description of exactly how you use the account and its importance in your life or business to provide context in case someone else needs to act on the account on your behalf."
  },{
    "page": "plans",
    "link": "https://www.youtube.com/embed/vydOmIQhBkY",
    "length": 256,
    "label": "Using Plans",
    "description": "## What information should be added to the Plans section? \n### A: Input information for any plans that your company may have. These plans may have a beginning and end (such as a 1-year business plan) or be long standing (such as a disaster recovery plan). \nFor example: You may have contingency plans, sales plans, marketing plans, budgeting plans, business plans, etc.  Be sure to provide a lot of detail about the plan in the “description” field to make your search function as powerful as possible (they are connected!)."
  },{
    "page": "processes",
    "link": "https://www.youtube.com/embed/FZy1lumjNKc",
    "length": 336,
    "label": "Using Processes",
    "description": "## How do I record my processes? \n### A: Processes are a series of steps – and within each step there are specific tasks.  You can easily record each step and task in Parachute360. \nFor example:  Processes may include payroll, new client intake, purchasing, manufacturing related processes, marketing related processes, and so many more. Already have your processes written in a document?  Upload that document in the Files section and attach it to a process record.  Or i)simply transcribe your process documents into Parachute and ii) link the process to other parts of your business to which it is connected (ie connect your payroll process record to your Quickbooks account record)."
  },{
    "page": "my-parachute",
    "link": "https://www.youtube.com/embed/3bSLvLquTMA",
    "length": 254,
    "label": "Using My Parachute",
    "description": "## How do I use the My Parachute section? \n### A: The My Parachute section is  your personal contingency plan that details exactly what needs to be done in case of an unexpected emergency. It is a detailed roadmap for your life or business complete with action items and links to names, numbers and other pieces of vital information. \nFor example: The My Parachute section is the answer to the question of “What if”?  What is you are not available to take care of important matters in your life or business? The My Parachute section is the roadmap that lets others ensures that others do not struggle to answer the “when, why, what and how” of your life or business."
  },{
    "page": "my-business",
    "link": "https://www.youtube.com/embed/-VGnVA9MK9I",
    "length": 115,
    "label": "Using My Business",
    "description": "## What information should be added to the My Business section? \n### A: The “My Business” is where you record all of your most commonly accessed business information such as your EIN number, owner information, and corporate documents. \nDid you know? You can customize any page in your Parachute account including the “My Business” page?  Add any important information to the page by Using Custom Properties section."
  },{
    "page": "settings",
    "link": "https://www.youtube.com/embed/T_nebIQ8fmU",
    "length": 135,
    "label": "Using Settings",
    "description": "## What actions can I take in the Settings section? \n### A: The Settings section of Parachute360 allows you to take important actions like inviting users, defining user access, viewing activity in your account, and managing your Parachute360 subscription(s). \nDid you know? You can have unlimited Parachute360 Personal and Professional subscriptions? You can add subscriptions in the Settings tab."
  },{
    "page": "docs",
    "link": "https://www.youtube.com/embed/oK3dAgJFako",
    "length": 135,
    "label": "Using Docs Feature",
    "description": "## What is the Docs feature and how do I use it? \n### A: The Parachute360 Docs feature enables you to create documents directly in the cloud – just like Google Docs! With Docs you can just start typing. Perfect for to do lists, instruction lists, business training and much more. \nDid you know? You can invite individuals to participate in your Parachute and – if granted permission to do so – they can collaborate on your Docs with you! "
  },{
    "page": "scorecard",
    "link": "https://www.youtube.com/embed/FeNkHL1E7wQ",
    "length": 135,
    "label": "Using Scorecard",
    "description": "## What is the Parachute360 Scorecard? \n### A: The Parachute360 Scorecard gives you a continual visual update as to how prepared you are for the unexpected.  With each Scorecard requirement met, your Preparedness Score increases.  A minimum score of 500 is required to reach the base level of preparedness for unexpected events. \nDid you know? You can configure your Scorecard and change the number of records required in each section in order to raise your Preparedness Score.  Also, while the Personal version of Parachute360 has only 1 scorecard, the Professional version of Parachute360 has several – so you can use the “General” scorecard or the one more specific to your particular business."
  }]
}
